{
  "digitalclimatetest" : [
    {
    "funFact": "In the year of 2017, transportation was the cause of 29% of the United State's Greenhouse Gas emission, the biggest contribution from the economic sectors",
    "factAudio": "fact0",
    "question": "Which type of transportation did you utilize the most?",
    "audio": "question0",
    "answers":[
       "Bicycle",
       "Public transportation",
       "Car",
       "Flying"
    ],

    "p1": 0,
    "p2": 10,
    "p3": 15,
    "p4": 30
  },{
    "funFact":"On average, emissions from animal-based foods are 10 to 50 times larger than those from plant-based foods",
    "factAudio":"fact1",
    "question":"How often did you eat animal-based products such as beef, pork, chicken, fish, eggs or dairy?",
    "audio": "question1",
    "answers":[
      "Not at all",
      "Once a week",
      "every 2-3 days",
      "Once a day"
    ],
    "p1": 0,
    "p2": 10,
    "p3": 20,
    "p4": 30
  },{
    "funFact":"Did you know that the emission of nitrous oxide and methane is 298 times and 25 times more potent than C02, respectively",
    "factAudio":"fact2",
    "question": "How much of the produce that you consumed was locally grown?",
    "audio": "question2",
    "answers":[
      "All of it",
      "Most of it",
      "Some of it" ,
      "None"
    ],
    "p1": 0,
    "p2": 10,
    "p3": 20,
    "p4": 30
  },{
    "funFact":"Food loss and waste is estimated to be roughly one third of the food intended for human consumption in the United States in the year 2021. When food is discarded, all inputs used in producing, processing, transporting, preparing, and storing discarded food are also wasted.",
    "factAudio":"fact3",
    "question":"How much of the food you bought did you end up throwing away?",
    "audio": "question3",
    "answers":[
      "None",
      "Some of it",
      "A lot of it",
      "Not sure"
    ],
    "p1": 0,
    "p2": 10,
    "p3": 20,
    "p4": 30

},{
    "funFact":"In 2019 it was estimated that Bitcoin production generated between 22 and 22.9 million metric tons of carbon dioxide emissions a year. This was equivalent 2.7 billion homes",
    "factAudio":"fact4",
    "question":"Did you participate in crypto dealings?",
    "audio": "question4",
    "answers":[
      "Not at all",
      "I've looked into it",
      "I owned a little",
      "Fully invested in crypto"
    ],
    "p1": 0,
    "p2": 10,
    "p3": 20,
    "p4": 30

},{
    "funFact":"For every hour that you spend streaming video, around 55 grams of C02e are produced. This is equivalent to driving 300 meters in a car",
    "factAudio":"fact5",
    "question":"How many hours per week did you spend watching streaming services such as Netflix, HBO and Disney+?",
    "audio": "question5",
    "answers":[
      "0-5 hours",
      "5-10 hours",
      "10-15 hours",
      "15+ hours"
    ],
    "p1": 0,
    "p2": 10,
    "p3": 20,
    "p4": 30
},{
    "funFact":"Back in 2019 it was estimated that in 2040, smartphones would account for 14% of global Greenhouse Emissions",
    "factAudio":"fact6",
    "question":"What was your daily screentime on your phone?",
    "audio": "question6",
    "answers":[
      "0-1 hours",
      "1-3 hours",
      "3-6 hours",
      "6+ hours"
    ],
    "p1": 0,
    "p2": 10,
    "p3": 20,
    "p4": 30
},{
    "funFact":"In 2019, it was estimated that data centers generated the same volume of carbon as emissions as the global airline industry",
    "factAudio":"fact7",
    "question": "Were you aware of the impact PCs and data centers have on carbon emission?",
    "audio": "question7",
    "answers":[
      "Fully aware",
      "Somewhat aware",
      "Not aware",
      "Did not care"
    ],
    "p1": 0 ,
    "p2": 10,
    "p3": 20,
    "p4": 30
},{
    "funFact": "The stuff you had in the cloud contributed to the carbon emissions of data centers",
    "factAudio": "fact8",
    "question": "How many pictures did you take with your phone per day?",
    "audio": "question8",
    "answers":[
      "1-4 pictures",
      "4-9 pictures",
      "9-15 pictures",
      "15+ pictures"
    ],
    "p1": 0,
    "p2": 10,
    "p3": 20,
    "p4": 30
},{
    "funFact":"In 2021, 69% of brits did not delete duplicate images on their phones, contribiting to the carbon emsissions of data centers",
    "factAudio":"fact9",
    "question": "Did you ever delete/sort your data?",
    "audio": "question9",
    "answers":[
      "Often",
      "Sometimes",
      "Rarely",
      "Never"
    ],
    "p1": 0,
    "p2": 10,
    "p3": 20,
    "p4": 30
},{
    "funFact":"85 to 95 percent of the carbon emissions of smartphones come from the production of the device, rather than the usage",
    "factAudio":"fact10",
    "question": "How often did you replace your phone?",
    "audio": "question10",
    "answers":[
      "Once my current phone stopped working",
      "Every few years",
      "Once a year",
      "Everytime a new one came out"
    ],
    "p1": 0,
    "p2": 10,
    "p3": 20,
    "p4": 30
},{
    "funFact":"A single data center can consume the equivalent electricity of 50,000 homes.",
    "factAudio":"fact11",
    "question": "Did you use cloud storage?",
    "audio": "question11",
    "answers":[
      "Not at all",
      "Yes, very little",
      "Yes, sometimes",
      "Yes, often"
    ],
    "p1": 0,
    "p2": 10,
    "p3": 20,
    "p4": 30
}
,{
    "funFact": "The carbon footprint of Spotify streams of Olivia Rodrigo’s hit single “Drivers License” from January 2021 till November 2021, is greater than flying from London to New York and back 4,000 times, or the annual emissions of 500 people in the UK.",
    "factAudio": "fact12",
    "question": "How many hours a week did you stream music?",
    "audio": "question12",
    "answers":[
      "I did not stream at all",
      "1-10 hours",
      "10-15 hours",
      "15+ hours"
    ],
    "p1": 0,
    "p2": 10,
    "p3": 20,
    "p4": 30
}
  ]

}
