{
  "questions" : [
    {
    "q":"Your friend calls in the middle of the night, what do you do?",
    "a":[
       "Let it ring, I’m asleep",
       "Answer it and listen to their problems",
       "Try and get off the phone as quickly as possible",
       "Nobody calls me in the middle of the night"
    ],
    "p1":[3,0,0,2,0,0,0,0,0,0,0,2],
    "p2":[0,0,0,0,0,0,0,3,0,0,0,0],
    "p3":[0,2,0,0,0,0,0,0,0,0,0,0],
    "p4":[0,0,0,0,0,0,0,0,0,2,2,0]
  },{
    "q":"A snack is 2 weeks past the expiration date. What do you do?",
    "a":[
      "EAT IT!",
      "Throw it in the trash!",
      "Use it to prank somebody",
      "Leave it in the fridge"
    ],
    "p1":[0,0,0,2,0,0,3,0,0,0,0,2],
    "p2":[0,0,2,0,3,0,0,0,0,1,0,0],
    "p3":[2,0,0,0,0,0,0,0,0,0,2,0],
    "p4":[0,0,0,0,0,1,0,0,3,0,0,2]
  },{
    "q":"How would you describe your appearance?",
    "a":[
      "Thicc",
      "Cute",
      "Hot" ,
      "Face only a mother could love"
    ],
    "p1":[0,0,0,2,0,0,2,1,0,0,0,0],
    "p2":[2,0,1,0,2,0,0,0,0,0,0,2],
    "p3":[0,3,0,0,3,0,0,0,0,2,0,0],
    "p4":[0,0,0,2,0,2,1,0,0,0,3,1]
  },{
    "q":"You’ve got the day off and the sun is shining. What do you decide to do?",
    "a":[
      "Laze about in the back garden, possibly in a hammock",
      "All-action zip-line adventure park with pals",
      "Gardening all day",
      "Eating ice cream"
    ],
    "p1":[0,0,0,2,0,1,0,0,0,0,0,2],
    "p2":[0,1,1,0,1,0,0,0,0,1,0,0],
    "p3":[2,0,0,0,0,2,0,2,0,0,0,0],
    "p4":[0,0,0,2,0,1,3,0,0,0,0,0]

},{
    "q":"A heated debate starts at the bar. What course of action do you take?",
    "a":[
      "Try to negotiate a peace settlement",
      "Join the argument head on",
      "Give them a hug",
      "Freak out"
    ],
    "p1":[0,0,0,0,0,0,0,2,0,0,0,3],
    "p2":[0,3,1,0,0,0,2,0,0,2,0,0],
    "p3":[0,0,0,0,0,1,0,3,0,0,0,1],
    "p4":[0,0,0,0,0,3,0,0,4,0,1,0]

},{
    "q":"You decide that you need to take up a new hobby. What do you go for?",
    "a":[
      "Gaming",
      "Magic",
      "Mindfulness course",
      "I don’t need a new hobby, I have way too much on my plate already"
    ],
    "p1":[0,1,2,0,0,0,0,0,0,0,0,0],
    "p2":[0,0,0,0,0,1,0,0,0,3,2,0],
    "p3":[0,0,0,1,0,1,0,2,0,1,0,0],
    "p4":[0,0,0,2,0,1,2,0,4,0,0,3]
}
  ]

}
